…
Observations are the level of items in orders by user. There are user /
order variables – user ID, order ID, order day, and order hour. There
are also item variables – name, aisle, department, and some numeric
codes.

How many aisles, and which are most items from?

``` r
instacart %>% 
    count(aisle) %>% 
    arrange(desc(n))
```

    ## # A tibble: 134 x 2
    ##    aisle                              n
    ##    <chr>                          <int>
    ##  1 fresh vegetables              150609
    ##  2 fresh fruits                  150473
    ##  3 packaged vegetables fruits     78493
    ##  4 yogurt                         55240
    ##  5 packaged cheese                41699
    ##  6 water seltzer sparkling water  36617
    ##  7 milk                           32644
    ##  8 chips pretzels                 31269
    ##  9 soy lactosefree                26240
    ## 10 bread                          23635
    ## # ... with 124 more rows
…
### 1.2

``` r
accel_df %>% 
  group_by(day_id) %>% 
  summarise(n_each = sum(counts))
```

    ## `summarise()` ungrouping output (override with `.groups` argument)

    ## # A tibble: 35 x 2
    ##    day_id  n_each
    ##     <dbl>   <dbl>
    ##  1      1 480543.
    ##  2      2  78828.
    ##  3      3 376254 
    ##  4      4 631105 
    ##  5      5 355924.
    ##  6      6 307094.
    ##  7      7 340115.
    ##  8      8 568839 
    ##  9      9 295431 
    ## 10     10 607175 
    ## # ... with 25 more rows
